[
	{
		"name": "minife",
		"cpu": 3.0,
		"ram": 4096,
		"watts": 46.98,
		"class_to_watts": {
			"A": 54.50,
			"B": 42.25,
			"C": 44.01,
			"D": 49.95 
		},
		"image": "rdelvalle/minife:electron1",
		"cmd": "cd src && mpirun -np 3 miniFE.x -nx 100 -ny 100 -nz 100",
		"inst": 98,
		"tolerance": 0.6
	},
	{
		"name": "stream",
		"cpu": 2.0,
		"ram": 4096,
		"watts": 34.25,
		"class_to_watts": {
			"A": 43.47,
			"B": 28.90,
			"C": 29.78,
			"D": 39.13
		},
		"image": "rdelvalle/stream:electron1",
		"cmd": "/./an9-stream",
		"inst": 80,
		"tolerance": 0.6
	},
	{
		"name": "jython",
		"cpu": 4.0,
		"ram": 5120,
		"watts": 37.46,
		"class_to_watts": {
			"A": 49.97,
			"B": 32.89,
			"C": 32.61,
			"D": 42.03
		},
		"image": "rdelvalle/dacapo:jython",
		"cmd": "java -jar /dacapo-9.12-bach.jar jython -s large",
		"inst": 10,
		"tolerance": 0.6
	},
	{
		"name": "h2",
		"cpu": 2.0,
		"ram": 3072,
		"watts": 13.27,
		"class_to_watts": {
			"A": 75.42,
			"B": 8.23,
			"C": 9.31,
			"D": 17.22
		},
		"image": "rdelvalle/dacapo:h2",
		"cmd": "java -jar /dacapo-9.12-bach.jar h2 -s large",
		"inst": 124,
		"tolerance": 0.6
	},
	{
		"name": "batik",
		"cpu": 2.0,
		"ram": 384,
		"watts": 34.74,
		"class_to_watts": {
			"A": 48.23,
			"B": 30.35,
			"C": 29.09,
			"D": 39.13
		},
		"image": "rdelvalle/dacapo:batik",
		"cmd": "java -jar /dacapo-9.12-bach.jar batik -s large",
		"inst": 86,
		"tolerance": 0.6
	},
	{
		"name": "video-encoding",
		"cpu": 6.0,
		"ram": 1024,
		"watts": 33.25,
		"class_to_watts": {
			"A": 58.14,
			"B": 28.19,
			"C": 28.98,
			"D": 37.52
		},
		"image": "pkaushi1/phoronix:video-encoding",
		"cmd": "phoronix-test-suite user-config-set SaveResults=FALSE && phoronix-test-suite batch-run pts/video-encoding",
		"inst": 67,
		"tolerance": 0.6
	},
	{
		"name": "avrora",
		"cpu": 3.0,
		"ram": 2048,
		"watts": 13.20,
		"class_to_watts": {
			"A": 15.45,
			"B": 9.62,
			"C": 10.95,
			"D": 18.42
		},
		"image": "rdelvalle/dacapo:avrora",
		"cmd": "java -jar /dacapo-9.12-bach.jar avrora -s large",
		"inst": 37,
		"tolerance": 0.6
	},
	{
		"name": "eclipse",
		"cpu": 3.0,
		"ram": 5120,
		"watts": 35.30,
		"class_to_watts": {
			"A": 54.18,
			"B": 31.06,
			"C": 30.54,
			"D": 39.54
		},
		"image": "rdelvalle/dacapo:eclipse",
		"cmd": "java -jar /dacapo-9.12-bach.jar eclipse -s large",
		"inst": 49,
		"tolerance": 0.6
	},
	{
		"name": "cryptography",
		"cpu": 6.0,
		"ram": 256,
		"watts": 104.64,
		"class_to_watts": {
			"A": 95.58,
			"B": 116.38,
			"C": 113.71,
			"D": 92.21
		},
		"image": "pkaushi1/phoronix:cryptography",
		"cmd": "phoronix-test-suite user-config-set SaveResults=FALSE && phoronix-test-suite batch-run pts/cryptography",
		"inst": 28,
		"tolerance": 0.6
	},
	{
		"name": "fop",
		"cpu": 3.0,
		"ram": 4096,
		"watts": 28.13,
		"class_to_watts": {
			"A": 27.95,
			"B": 33.65,
			"C": 26.64,
			"D": 28.31
		},
		"image": "ajain13/dacapo:fop",
		"cmd": "java -jar dacapo-9.12-bach.jar fop -s default",
		"inst": 100,
		"tolerance": 0.6
	},
	{
		"name": "luindex",
		"cpu": 3.0,
		"ram": 4096,
		"watts": 22.01,
		"class_to_watts": {
			"A": 24.41,
			"B": 22.42,
			"C": 20.00,
			"D": 21.59
		},
		"image": "ajain13/dacapo:luindex",
		"cmd": "java -jar dacapo-9.12-bach.jar luindex -s default",
		"inst": 97,
		"tolerance": 0.6
	},
	{
		"name": "lusearch",
		"cpu": 3.0,
		"ram": 4096,
		"watts": 44.75,
		"class_to_watts": {
			"A": 46.88,
			"B": 62.76,
			"C": 35.81,
			"D": 42.61
		},
		"image": "ajain13/dacapo:lusearch",
		"cmd": "java -jar dacapo-9.12-bach.jar lusearch -s large",
		"inst": 11,
		"tolerance": 0.6
	},
	{
		"name": "pmd",
		"cpu": 2.0,
		"ram": 1024,
		"watts": 52.53,
		"class_to_watts": {
			"A": 59.66,
			"B": 50.28,
			"C": 47.21,
			"D": 54.77
		},
		"image": "rdelvalle/dacapo:pmd",
		"cmd": "java -jar /dacapo-9.12-bach.jar pmd -s large",
		"inst": 101,
		"tolerance": 0.6
	},
	{
		"name": "sunflow",
		"cpu": 4.0,
		"ram": 3072,
		"watts": 47.59,
		"class_to_watts": {
			"A": 36.14,
			"B": 85.60,
			"C": 40.74,
			"D": 54.43
		},
		"image": "rdelvalle/dacapo:sunflow",
		"cmd": "java -jar /dacapo-9.12-bach.jar sunflow -s large",
		"inst": 80,
		"tolerance": 0.6
	},
	{
		"name": "tomcat",
		"cpu": 3.0,
		"ram": 4096,
		"watts": 32.91,
		"class_to_watts": {
			"A": 44.28,
			"B": 27.31,
			"C": 23.73,
			"D": 38.52
		},
		"image": "ajain13/dacapo:tomcat",
		"cmd": "java -jar dacapo-9.12-bach.jar tomcat -s large",
		"inst": 230,
		"tolerance": 0.6
	},
	{
		"name": "tradebeans",
		"cpu": 2.0,
		"ram": 3072,
		"watts": 16.63,
		"class_to_watts": {
			"A": 64.91,
			"B": 12.20,
			"C": 13.02,
			"D": 20.24
		},
		"image": "rdelvalle/dacapo:tradebeans",
		"cmd": "java -jar /dacapo-9.12-bach.jar tradebeans -s large",
		"inst": 29,
		"tolerance": 0.6
	},
	{
		"name": "xalan",
		"cpu": 2.0,
		"ram": 3072,
		"watts": 84.26,
		"class_to_watts": {
			"A": 97.42,
			"B": 88.67,
			"C": 75.82,
			"D": 79.85
		},
		"image": "rdelvalle/dacapo:xalan",
		"cmd": "java -jar /dacapo-9.12-bach.jar xalan -s large",
		"inst": 76,
		"tolerance": 0.6
	},
	{
		"name": "dgemm",
		"cpu": 5.0,
		"ram": 32,
		"watts": 83.77,
		"class_to_watts": {
			"A": 67.00,
			"B": 91.03,
			"C": 89.67,
			"D": 77.86
		},
		"image": "rdelvalle/dgemm:electron1",
		"cmd": "/./mt-dgemm 1024",
		"inst": 36,
		"tolerance": 0.6
	},
	{
		"name": "audio-encoding",
		"cpu": 2.0,
		"ram": 128,
		"watts": 31.96,
		"class_to_watts": {
			"A": 45.26,
			"B": 26.72,
			"C": 27.66,
			"D": 36.26
		},
		"image": "pkaushi1/phoronix:audio-encoding",
		"cmd": "phoronix-test-suite user-config-set SaveResults=FALSE && phoronix-test-suite batch-run pts/audio-encoding",
		"inst": 67,
		"tolerance": 0.6
	},
	{
		"name": "network-loopback",
		"cpu": 2.0,
		"ram": 32,
		"watts": 0.52,
		"class_to_watts": {
			"A": 22.81,
			"B": 0.36,
			"C": 0.50,
			"D": 0.55
		},
		"image": "pkaushi1/phoronix:network-loopback",
		"cmd": "phoronix-test-suite user-config-set SaveResults=FALSE && phoronix-test-suite batch-run pts/network-loopback",
		"inst": 50,
		"tolerance": 0.6
	}
]
