{
	"Power Intensive": [
		{
			"name": "minife",
			"tolerance": 0.25
		},
		{
			"name": "stream",
			"tolerance": 0.25
		},
		{
			"name": "jython",
			"tolerance": 0.25
		},
		{
			"name": "h2",
			"tolerance": 0.25
		},
		{
			"name": "batik",
			"tolerance": 0.25
		},
		{
			"name": "video-encoding",
			"tolerance": 0.75
		},
		{
			"name": "avrora",
			"tolerance": 0.25
		},
		{
			"name": "eclipse",
			"tolerance": 0.25
		},
		{
			"name": "cryptography",
			"tolerance": 0.75
		},
		{
			"name": "fop",
			"tolerance": 0.25
		},
		{
			"name": "luindex",
			"tolerance": 0.25
		},
		{
			"name": "lusearch",
			"tolerance": 0.25
		},
		{
			"name": "pmd",
			"tolerance": 0.25
		},
		{
			"name": "sunflow",
			"tolerance": 0.25
		},
		{
			"name": "tomcat",
			"tolerance": 0.25
		},
		{
			"name": "tradebeans",
			"tolerance": 0.25
		},
		{
			"name": "xalan",
			"tolerance": 0.25
		},
		{
			"name": "dgemm",
			"tolerance": 0.25
		},
		{
			"name": "audio-encoding",
			"tolerance": 0.25
		},
		{
			"name": "network-loopback",
			"tolerance": 0.25
		}
	],
	"Non Power Intensive": [
		{
			"name": "minife",
			"tolerance": 0.25
		},
		{
			"name": "stream",
			"tolerance": 0.25
		},
		{
			"name": "jython",
			"tolerance": 0.25
		},
		{
			"name": "h2",
			"tolerance": 0.25
		},
		{
			"name": "batik",
			"tolerance": 0.25
		},
		{
			"name": "video-encoding",
			"tolerance": 0.75
		},
		{
			"name": "avrora",
			"tolerance": 0.25
		},
		{
			"name": "eclipse",
			"tolerance": 0.25
		},
		{
			"name": "cryptography",
			"tolerance": 0.75
		},
		{
			"name": "fop",
			"tolerance": 0.25
		},
		{
			"name": "luindex",
			"tolerance": 0.25
		},
		{
			"name": "lusearch",
			"tolerance": 0.25
		},
		{
			"name": "pmd",
			"tolerance": 0.25
		},
		{
			"name": "sunflow",
			"tolerance": 0.25
		},
		{
			"name": "tomcat",
			"tolerance": 0.25
		},
		{
			"name": "tradebeans",
			"tolerance": 0.25
		},
		{
			"name": "xalan",
			"tolerance": 0.25
		},
		{
			"name": "dgemm",
			"tolerance": 0.25
		},
		{
			"name": "audio-encoding",
			"tolerance": 0.25
		},
		{
			"name": "network-loopback",
			"tolerance": 0.25
		}
	],
	"Sparse Jobs": [
		{
			"name": "minife",
			"tolerance": 0.25
		},
		{
			"name": "stream",
			"tolerance": 0.25
		},
		{
			"name": "jython",
			"tolerance": 0.25
		},
		{
			"name": "h2",
			"tolerance": 0.25
		},
		{
			"name": "batik",
			"tolerance": 0.25
		},
		{
			"name": "video-encoding",
			"tolerance": 0.75
		},
		{
			"name": "avrora",
			"tolerance": 0.25
		},
		{
			"name": "eclipse",
			"tolerance": 0.25
		},
		{
			"name": "cryptography",
			"tolerance": 0.75
		},
		{
			"name": "fop",
			"tolerance": 0.25
		},
		{
			"name": "luindex",
			"tolerance": 0.25
		},
		{
			"name": "lusearch",
			"tolerance": 0.25
		},
		{
			"name": "pmd",
			"tolerance": 0.25
		},
		{
			"name": "sunflow",
			"tolerance": 0.25
		},
		{
			"name": "tomcat",
			"tolerance": 0.25
		},
		{
			"name": "tradebeans",
			"tolerance": 0.25
		},
		{
			"name": "xalan",
			"tolerance": 0.25
		},
		{
			"name": "dgemm",
			"tolerance": 0.25
		},
		{
			"name": "audio-encoding",
			"tolerance": 0.25
		},
		{
			"name": "network-loopback",
			"tolerance": 0.25
		}
	],
	"Dense Jobs": [
		{
			"name": "minife",
			"tolerance": 0.25
		},
		{
			"name": "stream",
			"tolerance": 0.25
		},
		{
			"name": "jython",
			"tolerance": 0.25
		},
		{
			"name": "h2",
			"tolerance": 0.25
		},
		{
			"name": "batik",
			"tolerance": 0.25
		},
		{
			"name": "video-encoding",
			"tolerance": 0.75
		},
		{
			"name": "avrora",
			"tolerance": 0.25
		},
		{
			"name": "eclipse",
			"tolerance": 0.25
		},
		{
			"name": "cryptography",
			"tolerance": 0.75
		},
		{
			"name": "fop",
			"tolerance": 0.25
		},
		{
			"name": "luindex",
			"tolerance": 0.25
		},
		{
			"name": "lusearch",
			"tolerance": 0.25
		},
		{
			"name": "pmd",
			"tolerance": 0.25
		},
		{
			"name": "sunflow",
			"tolerance": 0.25
		},
		{
			"name": "tomcat",
			"tolerance": 0.25
		},
		{
			"name": "tradebeans",
			"tolerance": 0.25
		},
		{
			"name": "xalan",
			"tolerance": 0.25
		},
		{
			"name": "dgemm",
			"tolerance": 0.25
		},
		{
			"name": "audio-encoding",
			"tolerance": 0.25
		},
		{
			"name": "network-loopback",
			"tolerance": 0.25
		}
	]
}
