[
	{
		"name": "minife",
		"cpu": 3.0,
		"ram": 4096,
		"watts": 61.81,
		"class_to_watts": {
			"A": 74.00,
			"B": 56.75,
			"C": 57.50,
			"D": 66.12 
		},
		"image": "rdelvalle/minife:electron1",
		"cmd": "cd src && mpirun -np 3 miniFE.x -nx 100 -ny 100 -nz 100",
		"inst": 98,
		"tolerance": 0.2
	},
	{
		"name": "stream",
		"cpu": 2.0,
		"ram": 4096,
		"watts": 37.94,
		"class_to_watts": {
			"A": 50.93,
			"B": 32.36,
			"C": 32.19,
			"D": 43.53
		},
		"image": "rdelvalle/stream:electron1",
		"cmd": "/./an9-stream",
		"inst": 80,
		"tolerance": 0.2
	},
	{
		"name": "jython",
		"cpu": 4.0,
		"ram": 5120,
		"watts": 51.26,
		"class_to_watts": {
			"A": 61.38,
			"B": 47.48,
			"C": 47.18,
			"D": 55.05
		},
		"image": "rdelvalle/dacapo:jython",
		"cmd": "java -jar /dacapo-9.12-bach.jar jython -s large",
		"inst": 10,
		"tolerance": 0.2
	},
	{
		"name": "h2",
		"cpu": 2.0,
		"ram": 3072,
		"watts": 42.25,
		"class_to_watts": {
			"A": 53.23,
			"B": 37.85,
			"C": 37.78,
			"D": 46.65
		},
		"image": "rdelvalle/dacapo:h2",
		"cmd": "java -jar /dacapo-9.12-bach.jar h2 -s large",
		"inst": 124,
		"tolerance": 0.2
	},
	{
		"name": "batik",
		"cpu": 2.0,
		"ram": 384,
		"watts": 47.53,
		"class_to_watts": {
			"A": 49.01,
			"B": 32.84,
			"C": 33.12,
			"D": 41.94
		},
		"image": "rdelvalle/dacapo:batik",
		"cmd": "java -jar /dacapo-9.12-bach.jar batik -s large",
		"inst": 86,
		"tolerance": 0.2
	},
	{
		"name": "video-encoding",
		"cpu": 6.0,
		"ram": 1024,
		"watts": 113.25,
		"class_to_watts": {
			"A": 116.17,
			"B": 114.96,
			"C": 111.53,
			"D": 104.77
		},
		"image": "pkaushi1/phoronix:video-encoding",
		"cmd": "phoronix-test-suite user-config-set SaveResults=FALSE && phoronix-test-suite batch-run pts/video-encoding",
		"inst": 67,
		"tolerance": 0.2
	},
	{
		"name": "avrora",
		"cpu": 3.0,
		"ram": 2048,
		"watts": 49.50,
		"class_to_watts": {
			"A": 58.76,
			"B": 45.91,
			"C": 42.18,
			"D": 53.09
		},
		"image": "rdelvalle/dacapo:avrora",
		"cmd": "java -jar /dacapo-9.12-bach.jar avrora -s large",
		"inst": 37,
		"tolerance": 0.2
	},
	{
		"name": "eclipse",
		"cpu": 3.0,
		"ram": 5120,
		"watts": 51.78,
		"class_to_watts": {
			"A": 62.53,
			"B": 47.88,
			"C": 47.85,
			"D": 55.67
		},
		"image": "rdelvalle/dacapo:eclipse",
		"cmd": "java -jar /dacapo-9.12-bach.jar eclipse -s large",
		"inst": 49,
		"tolerance": 0.2
	},
	{
		"name": "cryptography",
		"cpu": 6.0,
		"ram": 256,
		"watts": 134.65,
		"class_to_watts": {
			"A": 162.68,
			"B": 136.70,
			"C": 132.59,
			"D": 106.17
		},
		"image": "pkaushi1/phoronix:cryptography",
		"cmd": "phoronix-test-suite user-config-set SaveResults=FALSE && phoronix-test-suite batch-run pts/cryptography",
		"inst": 28,
		"tolerance": 0.2
	},
	{
		"name": "fop",
		"cpu": 3.0,
		"ram": 4096,
		"watts": 45.07,
		"class_to_watts": {
			"A": 55.66,
			"B": 41.88,
			"C": 37.61,
			"D": 48.26
		},
		"image": "ajain13/dacapo:fop",
		"cmd": "java -jar dacapo-9.12-bach.jar fop -s default",
		"inst": 100,
		"tolerance": 0.2
	},
	{
		"name": "luindex",
		"cpu": 3.0,
		"ram": 4096,
		"watts": 35.19,
		"class_to_watts": {
			"A": 45.66,
			"B": 31.37,
			"C": 30.03,
			"D": 39.00
		},
		"image": "ajain13/dacapo:luindex",
		"cmd": "java -jar dacapo-9.12-bach.jar luindex -s default",
		"inst": 97,
		"tolerance": 0.2
	},
	{
		"name": "lusearch",
		"cpu": 3.0,
		"ram": 4096,
		"watts": 85.79,
		"class_to_watts": {
			"A": 110.22,
			"B": 86.48,
			"C": 85.11,
			"D": 82.25
		},
		"image": "ajain13/dacapo:lusearch",
		"cmd": "java -jar dacapo-9.12-bach.jar lusearch -s large",
		"inst": 11,
		"tolerance": 0.2
	},
	{
		"name": "pmd",
		"cpu": 2.0,
		"ram": 1024,
		"watts": 68.61,
		"class_to_watts": {
			"A": 83.97,
			"B": 64.64,
			"C": 69.42,
			"D": 67.79
		},
		"image": "rdelvalle/dacapo:pmd",
		"cmd": "java -jar /dacapo-9.12-bach.jar pmd -s large",
		"inst": 101,
		"tolerance": 0.2
	},
	{
		"name": "sunflow",
		"cpu": 4.0,
		"ram": 3072,
		"watts": 119.09,
		"class_to_watts": {
			"A": 133.88,
			"B": 122.77,
			"C": 115.40,
			"D": 99.30
		},
		"image": "rdelvalle/dacapo:sunflow",
		"cmd": "java -jar /dacapo-9.12-bach.jar sunflow -s large",
		"inst": 80,
		"tolerance": 0.2
	},
	{
		"name": "tomcat",
		"cpu": 3.0,
		"ram": 4096,
		"watts": 86.95,
		"class_to_watts": {
			"A": 110.36,
			"B": 87.10,
			"C": 86.79,
			"D": 78.33
		},
		"image": "ajain13/dacapo:tomcat",
		"cmd": "java -jar dacapo-9.12-bach.jar tomcat -s large",
		"inst": 230,
		"tolerance": 0.2
	},
	{
		"name": "tradebeans",
		"cpu": 2.0,
		"ram": 3072,
		"watts": 43.61,
		"class_to_watts": {
			"A": 53.56,
			"B": 37.09,
			"C": 40.34,
			"D": 46.88
		},
		"image": "rdelvalle/dacapo:tradebeans",
		"cmd": "java -jar /dacapo-9.12-bach.jar tradebeans -s large",
		"inst": 29,
		"tolerance": 0.2
	},
	{
		"name": "xalan",
		"cpu": 2.0,
		"ram": 3072,
		"watts": 114.14,
		"class_to_watts": {
			"A": 133.42,
			"B": 116.18,
			"C": 112.09,
			"D": 97.88
		},
		"image": "rdelvalle/dacapo:xalan",
		"cmd": "java -jar /dacapo-9.12-bach.jar xalan -s large",
		"inst": 76,
		"tolerance": 0.2
	},
	{
		"name": "dgemm",
		"cpu": 5.0,
		"ram": 32,
		"watts": 91.23,
		"class_to_watts": {
			"A": 118.06,
			"B": 91.92,
			"C": 90.54,
			"D": 79.24
		},
		"image": "rdelvalle/dgemm:electron1",
		"cmd": "/./mt-dgemm 1024",
		"inst": 36,
		"tolerance": 0.2
	},
	{
		"name": "audio-encoding",
		"cpu": 2.0,
		"ram": 128,
		"watts": 36.16,
		"class_to_watts": {
			"A": 46.87,
			"B": 29.90,
			"C": 30.40,
			"D": 41.91
		},
		"image": "pkaushi1/phoronix:audio-encoding",
		"cmd": "phoronix-test-suite user-config-set SaveResults=FALSE && phoronix-test-suite batch-run pts/audio-encoding",
		"inst": 67,
		"tolerance": 0.2
	},
	{
		"name": "network-loopback",
		"cpu": 2.0,
		"ram": 32,
		"watts": 10.58,
		"class_to_watts": {
			"A": 12.63,
			"B": 7.99,
			"C": 8.53,
			"D": 14.32
		},
		"image": "pkaushi1/phoronix:network-loopback",
		"cmd": "phoronix-test-suite user-config-set SaveResults=FALSE && phoronix-test-suite batch-run pts/network-loopback",
		"inst": 50,
		"tolerance": 0.2
	}
]
